Emplanture
P_Decal(k).x  P_Decal(k).y  P_abs(k).x    P_abs(k).y    Temps         Vitesse
 0             78,34146     -6,404067E-05                80,90277      76,20057      0 
 5,000015      78,34146     -52,59919      80,90277      4,863377      10,81535 
 5,000015      77,73606     -52,59919      77,75652      0,1572471     20,0083 
 15,38451      77,73606     -42,19754      77,75652      2,696209      3,857881 
 15,38451      77,73606     -43,45975      79,3342       0,1945509     10,38522 
 15,41105      71,37993     -43,56236      62,41743      1,551982      10,9003 
 15,4508       69,53938     -43,42894      57,76908      0,4735276     9,820471 
 15,53585      65,5883      -43,57056      47,83588      1,022297      9,717547 
 15,54939      65,30431     -43,54012      47,08708      7,011572E-02                10,68829 
 15,75099      61,05135     -43,5309       36,30276      1,094444      9,853695 
 15,81038      59,79941     -43,68066      33,09586      0,3207432     10,00925 
 16,04622      56,83319     -43,54628      25,53762      0,7637959     9,897185 
 16,28401      53,84149     -44,02488      17,81786      0,771677      10,02309 
 16,44126      52,69411     -43,85372      14,80427      0,290733      10,38218 
 16,44126      52,69411     -43,85411      14,80414      3,973671E-05                10,39777 
 16,53135      52,03565     -43,89777      12,98363      0,1619097     11,24721 
 16,53135      52,03565     -43,89739      12,98381      4,069865E-05                10,41211 
 16,878        50,1292      -43,70237      8,103127      0,5081611     9,612259 
 17,18333      48,84375     -43,16193      4,695498      0,3308471     10,42844 
 17,34833      48,14886     -43,03445      2,727023      0,1731076     11,39522 
 17,68025      47,01495     -42,58821     -0,2885349     0,3032064     10,05386 
 17,94408      46,11337     -42,32746     -2,753189      0,2390693     10,3669 
 17,94408      46,11337     -42,32785     -2,753381      4,137218E-05                10,40413 
 18,21247      45,27845     -41,95407     -5,050012      0,2199021     10,58129 
 18,21247      45,27845     -41,95372     -5,049788      4,019955E-05                10,43859 
 18,61471      44,02714     -41,62169     -8,555024      0,3346412     10,5215 
 19,40805      41,91962     -40,59744     -14,22478      0,5897537     9,769371 
 19,40805      41,91962     -40,5978      -14,22498      3,939854E-05                10,43684 
 19,83889      40,92242     -39,81981     -16,91689      0,2780637     10,07712 
 19,83889      40,92242     -39,81944     -16,91667      4,150959E-05                10,40989 
 21,22515      37,71304     -37,74323     -25,72677      0,9043998     10,00822 
 21,22515      37,71304     -37,74356     -25,72701      3,978985E-05                10,37581 
 21,50004      37,16337     -37,19379     -27,23451      0,1550615     10,34829 
 21,50004      37,16337     -37,19345     -27,23427      3,978603E-05                10,3768 
 22,24331      35,67684     -35,93805     -31,39207      0,4255088     10,20705 
 23,22153      33,83399     -34,1288      -36,48842      0,5343899     10,11991 
 23,22153      33,83399     -34,12912     -36,48867      3,949058E-05                10,37919 
 23,31148      33,66469     -33,95118     -37,02108      4,355651E-02                12,88804 
 23,31148      33,66469     -33,9509      -37,02076      4,046721E-05                10,36802 
 24,45281      31,75405     -31,89176     -42,30369      0,5824433     9,734928 
 25,10292      30,75175     -30,51946     -45,10482      0,3017779     10,33615 
 25,64345      29,91845     -29,51924     -47,57056      0,2501756     10,63608 
 26,88342      28,20748     -27,07615     -52,33841      0,5532933     9,682641 
 27,18588      27,8218      -26,38067     -53,43982      0,1211673     10,7505 
 28,14595      26,59835     -24,44739     -56,99621      0,3992        10,14003 
 29,42924      25,16692     -21,65011     -60,88615      0,5057999     9,472686 
 29,42924      25,16692     -21,6504      -60,88645      4,035915E-05                10,32863 
 29,62311      24,97673     -21,15647     -61,40426      6,709684E-02                10,66527 
 29,62311      24,97673     -21,1562      -61,40392      4,165205E-05                10,38439 
 30,73751      23,88328     -18,57293     -64,4192       0,4017422     9,883299 
 31,72106      23,02265     -16,21763     -66,60072      0,3451348     9,301766 
 32,72473      22,23941     -13,65237     -68,46751      0,3319001     9,558947 
 34,85424      20,80292     -8,089919     -71,68986      0,6692612     9,605227 
 36,68024      19,75659     -3,054689     -73,69409      0,541549      10,00732 
 37,0508       19,54424     -2,050115     -74,17666      0,1069836     10,4172 
 38,59416      18,84719      2,218274     -75,27053      0,4357407     10,11226 
 39,34743      18,50706      4,257932     -75,94424      0,2090198     10,27675 
 39,34743      18,50706      4,257724     -75,94462      4,073332E-05                10,50719 
 40,57388      18,04711      7,65949      -76,60126      0,3313457     10,45603 
 40,57388      18,04711      7,659858     -76,60049      8,20419E-05   10,40911 
 41,72268      17,61634      10,71593     -77,46775      0,3100818     10,24488 
 41,72268      17,61634      10,71558     -77,46851      8,000962E-05                10,41456 
 42,62218      17,35015      13,15661     -77,80093      0,2377188     10,36335 
 42,62218      17,35015      13,15677     -77,80052      4,15119E-05   10,47754 
 44,14606      16,89928      17,13751     -78,61185      0,4069674     9,982566 
 44,76779      16,7638       18,8061      -78,70816      0,1614238     10,35387 
 46,64962      16,35384      23,70247     -79,24074      0,4947667     9,954689 
 46,64962      16,35384      23,70234     -79,24115      4,194506E-05                10,28374 
 46,95457      16,30005      24,587       -79,29128      7,095816E-02                12,48739 
 46,95457      16,30005      24,5871      -79,29089      3,963479E-05                10,3061 
 49,17884      15,90758      30,30026     -79,94334      0,5785691     9,938818 
 49,17884      15,90758      30,30095     -79,94263      9,480248E-05                10,42913 
 49,25166      15,89989      30,50095     -79,94033      1,764906E-02                11,33295 
 49,25166      15,89989      30,50079     -79,94115      8,012469E-05                10,3828 
 51,61872      15,6495       36,65024     -80,01201      0,6041546     10,17928 
 51,61872      15,6495       36,65029     -80,0116       4,034253E-05                10,28595 
 51,76014      15,63451      37,08507     -80,05014      2,914412E-02                14,97692 
 51,76014      15,63451      37,08502     -80,05055      4,034898E-05                10,2843 
 53,99323      15,46269      42,77098     -80,16729      0,5748667     9,892996 
 53,99323      15,46269      42,77101     -80,16687      4,019035E-05                10,46831 
 54,34526      15,43571      43,71177     -80,24493      8,576589E-02                11,00665 
 54,34526      15,43571      43,71174     -80,24535      4,020277E-05                10,46508 
 56,95375      15,36108      50,20184     -80,14016      0,6820891     9,51629 
 58,98772      15,38044      55,37813     -79,66325      0,5206558     9,983971 
 58,98772      15,38044      55,37813     -79,66368      4,162989E-05                10,26297 
 59,56295      15,38601      56,89311     -79,63473      0,1419965     10,67106 
 59,56295      15,38601      56,89309     -79,63431      4,011297E-05                10,47167 
 64,13815      15,62796      68,38419     -78,37691      1,183066      9,770966 
 64,74593      15,66002      69,97544     -78,31423      0,1512581     10,52824 
 69,39893      16,11844      81,62759     -76,76095      1,209108      9,722221 
 69,39893      16,11844      81,62769     -76,76176      7,919588E-05                10,38373 
 69,80827      16,15885      82,72253     -76,67784      0,1001995     10,95866 
 69,80827      16,15885      82,72243     -76,67701      8,069586E-05                10,37845 
 74,80087      16,75368      95,25636     -75,22598      1,301104      9,697646 
 75,675        16,85789      97,5043      -75,06434      0,2239731     10,06253 
 80,22054      17,50438      108,9504     -73,7193       1,188506      9,696961 
 81,46528      17,68151      112,1347     -73,47012      0,3227986     9,894856 
 85,57658      18,38476      122,5171     -72,0603       1,07954       9,705618 
 87,15296      18,65435      126,5534     -71,67513      0,4119698     9,842258 
 90,86527      19,42982      135,927      -70,06991      0,9832368     9,672194 
 92,76326      19,8263       140,761      -69,38106      0,50204       9,725986 
 95,52543      20,52308      147,6683     -67,79123      0,7433653     9,534867 
 95,52543      20,52308      147,6682     -67,79084      4,135668E-05                10,39808 
 96,01431      20,66081      148,9221     -67,42596      0,1283988     10,17101 
 96,01431      20,66081      148,9222     -67,42637      4,046574E-05                10,55317 
 98,26402      21,29487      154,6263     -65,99598      0,6038598     9,738467 
 101,0029      22,16635      161,4283     -63,78199      0,7495925     9,542852 
 103,7156      23,11204      168,0937     -61,18193      0,7495747     9,544902 
 105,4063      23,77903      172,2354     -59,16236      0,4684434     9,836536 
 106,4271      24,1817       174,7914     -58,0516       0,281106      9,914031 
 109,1149      25,3514       181,2798     -54,64428      0,7648548     9,581747 
 111,7746      26,61903      187,5742     -50,74485      0,7696782     9,620095 
 113,2254      27,40837      190,9516     -48,12928      0,4255901     10,03734 
 116,5839      29,23561      198,8954     -42,51126      0,9889618     9,838249 
 117,0035      29,48547      199,9262     -41,68164      0,1195979     11,06379 
 118,7962      30,55295      204,2533     -38,56895      0,5346098     9,970478 
 120,0839      31,38787      207,3026     -36,00841      0,3903587     10,20029 
 121,0563      32,01833      209,7229     -34,26749      0,2934963     10,1583 
 121,4135      32,27807      210,6627     -33,45243      0,1022009     12,17163 
 122,6278      33,16123      213,9283     -31,12203      0,3651159     10,98792 
 123,2358      33,60339      215,5941     -30,10512      0,1895355     10,29696 
 123,2358      33,60339      215,5936     -30,10503      5,018309E-05                10,21957 
 123,7321      34,02715      216,8884     -29,00309      0,1628046     10,44349 
 123,7321      34,02715      216,8887     -29,0034       4,034991E-05                10,17529 
 124,7781      34,91996      219,9006     -26,78778      0,3301391     11,32584 
 125,2686      35,33883      221,4681     -25,86073      0,1530432     11,89915 
 125,8015      35,83068      223,1189     -24,72808      0,1743249     11,48439 
 125,8015      35,83068      223,1192     -24,7283       4,020886E-05                10,34334 
 126,2248      36,22141      224,5686     -23,92219      0,138325      11,9895 
 126,2248      36,22141      224,568      -23,92156      8,393179E-05                10,4135 
 126,7603      36,8182       226,2767     -22,57293      0,1979299     10,99789 
 126,7603      36,8182       226,2771     -22,57307      3,951599E-05                10,31 
 127,9498      38,14357      230,4549     -19,93576      0,4525007     10,91843 
 128,6531      39,10466      232,8087     -17,70132      0,2938311     11,04531 
 128,6531      39,10466      232,8123     -17,70246      3,658111E-04                10,36271 
 128,6823      39,14454      232,9795     -17,44383      5,174175E-03                59,52225 
 128,6823      39,14454      232,9765     -17,44052      4,269684E-04                10,38187 
 129,3664      40,19517      235,5415     -15,29619      0,3332252     10,0329 
 129,9253      41,26463      237,4872     -12,94609      0,3224064     9,463226 
 130,287       42,12366      238,6653     -10,82928      0,2359283     10,26833 
 130,5131      42,66031      239,5181     -9,512073      0,1450633     10,81693 
 131,0033      44,15574      241,1393     -5,969286      0,4168682     9,346144 
 131,3723      45,68105      242,1366     -2,244174      0,4141892     9,310513 
 131,3723      45,68105      242,1371     -2,244286      4,151374E-05                10,63977 
 131,4412      46,04806      242,2924     -1,261667      9,116186E-02                10,91264 
 131,4412      46,04806      242,2919     -1,261683      4,011389E-05                10,65838 
 131,6682      47,25923      242,9694      1,802596      0,3147867     9,969501 
 131,9476      49,52845      243,4798      7,54516       0,5896146     9,777922 
 132,0654      50,48586      243,8354      9,97783       0,2461238     9,988969 
 132,2481      53,36326      244,0065      17,22562      0,7458265     9,720503 
 132,2481      53,36326      244,0061      17,22571      4,112596E-05                10,28258 
 132,2643      53,61802      244,0538      17,90658      6,201023E-02                11,00688 
 132,2643      53,61802      244,0543      17,90661      4,020099E-05                10,27627 
 132,4389      59,50576      244,0529      32,60887      1,533158      9,589524 
 132,4389      61,51743      243,7456      37,68493      0,5187292     9,803493 
 132,4388      65,47343      243,5458      47,62584      1,02268       9,722403 
 132,4025      69,80078      243,1382      58,46626      1,121863      9,669705 
 132,3357      77,73606      242,791       76,51801      2,23276       8,086444 
 132,3357      77,73606      239,932       77,75652      0,1928234     16,15832 
 143,1094      77,73606      252,3246      77,75652      2,69819       4,592917 
 143,1094      77,73606      251,2599      79,38953      0,1747182     11,15752 
 143,144       70,03823      251,5444      60,61212      1,902596      9,870497 
 143,1831      61,30915      252,4842      40,60629      2,273798      8,808123 
 143,1831      61,30915      252,487       40,64618      3,583878E-03                11,15984 
 143,1861      60,62382      252,6188      39,05881      0,1772157     8,988113 
 143,1861      60,62382      252,6183      39,05865      3,997321E-05                11,41512 
 143,136       55,965        253,1458      28,30046      1,20788       8,917368 
 142,9993      52,62691      253,0044      20,66036      0,8715578     8,767529 
 142,9604      51,67484      253,0876      18,49145      0,2503605     8,669556 
 142,6958      48,72636      252,5938      11,74         0,7723269     8,765039 
 142,6085      47,75353      252,57        9,513068      0,2564498     8,684195 
 142,2435      45,36477      251,7358      4,078258      0,6327293     8,690058 
 142,2435      45,36477      251,7552      4,167355      8,173046E-03                11,15693 
 142,0548      44,12916      251,5522      1,245937      0,3213672     9,112521 
 141,675       42,40749      250,6729     -2,776685      0,4521763     9,106184 
 141,675       42,40749      250,6733     -2,776733      3,755189E-05                11,44883 
 141,2197      40,73811      249,3821     -6,613754      0,4442056     9,113906 
 141,2197      40,73811      249,3813     -6,613578      7,628534E-05                11,24172 
 141,1156      40,42576      249,0536     -7,277004      8,814982E-02                8,394184 
 141,1156      40,42576      249,0701     -7,218983      5,406782E-03                11,15707 
 140,688       39,14318      247,861      -10,13005      0,3485169     9,044492 
 140,3106      38,18364      246,6855     -12,20438      0,2703732     8,818363 
 140,0803      37,59853      246,0472     -13,4827       0,1656977     8,623189 
 139,3764      36,06705      243,8752     -16,74695      0,4413314     8,884152 
 138,583       34,6293       241,5755     -19,77921      0,4301633     8,846921 
 138,583       34,6293       241,5752     -19,77901      3,851011E-05                11,09715 
 138,273       34,13327      240,6268     -20,74397      0,1563075     8,655677 
 138,273       34,13327      240,6616     -20,67272      7,105273E-03                11,15777 
 137,6964      33,21081      239,0184     -22,6552       0,2796529     9,207762 
 137,0576      32,30981      237,1164     -24,39254      0,2929826     8,79224 
 136,7075      31,81614      236,2053     -25,38428      0,1628236     8,271226 
 135,7005      30,58016      233,3269     -27,72547      0,4223924     8,783944 
 135,7005      30,58016      233,4023     -27,6192       1,167779E-02                11,15586 
 135,5916      30,44665      233,1062     -27,93477      4,166165E-02                10,38695 
 135,5916      30,44665      233,1068     -27,93463      5,602967E-05                11,18856 
 134,3522      29,10603      229,7057     -30,64639      0,4686649     9,281351 
 134,3522      29,10603      229,7047     -30,64565      1,131566E-04                11,13368 
 134,1917      28,94854      229,2899     -30,87691      6,471194E-02                7,337733 
 134,1917      28,94854      229,3533     -30,80257      8,751126E-03                11,1575 
 133,013       27,7922       226,2641     -33,15307      0,4261649     9,108405 
 133,013       27,7922       226,2638     -33,15278      3,861248E-05                11,19127 
 132,5774      27,40822      225,1446     -33,7682       0,16071       7,94767 
 132,5774      27,40822      225,2454     -33,6702       1,260198E-02                11,15762 
 131,5231      26,47904      222,6585     -35,67133      0,3625303     9,021587 
 130,8252      25,92284      220,9413     -36,69486      0,2393447     8,352463 
 129,9115      25,19474      218,8767     -38,25916      0,3121538     8,298017 
 128,8852      24,42131      216,4594     -39,86715      0,3391942     8,559343 
 128,1763      23,88701      214,889      -41,08606      0,2353337     8,447219 
 126,7866      22,92357      211,6969     -43,12384      0,4486458     8,441116 
 126,7866      22,92357      211,8057     -43,05804      1,139756E-02                11,15665 
 126,2884      22,57813      210,7034     -43,9608       0,15543       9,166939 
 126,2884      22,57813      210,7039     -43,96099      4,903909E-05                11,29869 
 124,4693      21,42451      206,6408     -46,72202      0,5634466     8,718614 
 124,2257      21,26999      206,1527     -47,10945      7,903083E-02                7,88542 
 121,873       19,89973      200,9407     -50,48289      0,7127836     8,710156 
 119,6637      18,61312      196,2572     -54,06421      0,6698793     8,801359 
 119,6637      18,61312      196,2573     -54,06464      3,968133E-05                11,10537 
 119,0644      18,29073      194,9738     -54,90363      0,1803777     8,50104 
 119,0644      18,29073      195,0287     -54,88095      5,330494E-03                11,15734 
 116,6745      17,00544      189,8728     -58,62216      0,7023308     9,070232 
 116,6745      17,00544      189,8726     -58,62178      3,731237E-05                11,16957 
 115,9685      16,67003      188,3211     -59,5083       0,204744      8,727437 
 115,9685      16,67003      188,3657     -59,49252      4,238111E-03                11,15677 
 113,6597      15,57331      183,3086     -62,66373      0,6621726     9,014466 
 113,6597      15,57331      183,3085     -62,66335      3,731493E-05                11,10547 
 110,6477      14,26813      176,5869     -66,19308      0,8521063     8,909643 
 110,6477      14,26813      176,6173     -66,18327      2,859169E-03                11,15577 
 107,6611      13,08865      169,8787     -69,34743      0,8307871     8,960774 
 105,1265      12,1804       164,1118     -71,56702      0,7005085     8,821229 
 105,1265      12,1804       164,1412     -71,55695      2,791251E-03                11,15049 
 104,6484      12,00902      163,0412     -72,01544      0,1300428     9,163829 
 104,6484      12,00902      163,0416     -72,0162       7,461465E-05                11,09031 
 101,636       11,05506      156,0914     -74,25716      0,8173305     8,934587 
 99,41035      10,42453      150,9497     -75,52867      0,6032342     8,780304 
 98,62557      10,20217      149,1784     -76,04594      0,2145226     8,602018 
 95,58852      9,42409       142,1164     -77,67583      0,8110864     8,935671 
 93,58717      8,994082      137,4614     -78,32074      0,5343469     8,794771 
 89,5234       8,120828      128,0935     -80,08519      1,082159      8,808868 
 87,70169      7,807223      123,8548     -80,48083      0,4814934     8,841645 
 83,40926      7,068356      113,9291     -81,76725      1,133077      8,833167 
 83,40926      7,068356      113,929      -81,76684      3,759337E-05                11,27214 
 81,85197      6,853202      110,3418     -81,95553      0,412392      8,710499 
 81,85197      6,853202      110,4051     -81,94601      5,731693E-03                11,15756 
 77,25043      6,217187      99,78307     -83,16122      1,205933      8,865579 
 77,25043      6,217187      99,78301     -83,1608       3,704008E-05                11,24414 
 76,0725       6,069982      97,11742     -83,38271      0,3135703     8,530173 
 76,0725       6,069982      97,18268     -83,37611      5,878677E-03                11,15678 
 71,04364      5,441357      85,63838     -85,0731       1,315249      8,871593 
 70,35324      5,370639      84,10361     -85,21971      0,1850784     8,330312 
 70,35324      5,370639      84,16973     -85,21545      5,938767E-03                11,15743 
 67,85979      5,115385      78,45119     -86,12166      0,6499987     8,90756 
 67,85979      5,115385      78,45276     -86,12199      1,438158E-04                11,17475 
 64,67584      4,864704      71,1969      -86,89616      0,8340658     8,74876 
 61,49019      4,689114      63,93307     -87,80869      0,8328027     8,790709 
 59,2268       4,635642      58,81435     -88,08659      0,5954993     8,608337 
 58,30298      4,613864      56,76671     -88,40588      0,2474621     8,374543 
 55,13765      4,638927      49,42042     -88,95698      0,8181903     9,00393 
 53,86146      4,710413      46,55207     -88,86697      0,3383005     8,482891 
 53,86146      4,710413      46,64833     -88,88079      8,717153E-03                11,15664 
 51,99556      4,814889      42,28614     -89,12692      0,4833733     9,038836 
 51,99556      4,814889      42,28605     -89,12733      3,758953E-05                11,24997 
 48,87987      5,116403      35,02297     -88,88078      0,808971      8,983334 
 48,87987      5,116403      35,02311     -88,88207      1,161657E-04                11,16568 
 48,65254      5,14794       34,5893      -88,82892      6,769827E-02                6,455933 
 48,65254      5,14794       34,69971     -88,85359      1,013957E-02                11,15712 
 46,14731      5,494079      28,85146     -88,74185      0,6602926     8,858665 
 46,14731      5,494079      28,88795     -88,75108      3,373398E-03                11,15654 
 45,78566      5,544034      27,99828     -88,75372      9,178076E-02                9,693441 
 43,62348      5,976527      22,97574     -88,15082      0,5761722     8,779657 
 43,62348      5,976527      23,04457     -88,17348      6,49407E-03   11,15835 
 42,76295      6,148687      20,96107     -88,05058      0,2249583     9,2778 
 41,1976       6,559906      17,34098     -87,37229      0,4252669     8,660668 
 39,79084      6,929514      13,99929     -87,02628      0,3826879     8,778831 
 39,79084      6,929514      13,99945     -87,02589      3,79736E-05   11,26727 
 38,81915      7,247699      11,73077     -86,47602      0,2681943     8,704001 
 38,81915      7,247699      11,78759     -86,50214      5,604755E-03                11,1579 
 36,86705      7,8873        7,032661     -85,61248      0,530059      9,126237 
 36,86705      7,8873        7,033013     -85,61171      7,578659E-05                11,18033 
 36,46332      8,051552      6,139322     -85,30217      0,1184879     7,982077 
 36,46332      8,051552      6,225024     -85,3496       8,778931E-03                11,15768 
 34,2126       8,9678        0,7826759    -83,98002      0,6377025     8,800394 
 34,2126       8,9678        0,8440429    -84,01921      6,522299E-03                11,16391 
 34,01698      9,047428      0,3155456    -83,90531      0,0513157     10,5354 
 34,01698      9,047428      0,316202     -83,90424      1,127119E-04                11,12306 
 32,00859      10,0334      -4,567396     -82,19028      0,5841163     8,860627 
 32,00859      10,0334      -4,507278     -82,23131      6,524346E-03                11,15599 
 31,24096      10,41019     -6,495027     -81,65627      0,2180812     9,488456 
 31,24096      10,41019     -6,495427     -81,6565       4,111628E-05                11,20997 
 29,86883      11,22573     -9,788426     -80,06947      0,4180868     8,743351 
 28,56477      12,00087     -13,07901     -78,78456      0,3976142     8,884381 
 25,99295      13,81623     -19,33638     -74,94409      0,8107065     9,056207 
 25,99295      13,81623     -19,33613     -74,94377      3,675472E-05                11,15177 
 25,20504      14,44647     -21,11676     -73,48904      0,2639163     8,712337 
 25,20504      14,44647     -21,07565     -73,5247       4,878366E-03                11,15736 
 24,72711      14,82882     -22,22961     -72,67381      0,1567644     9,145888 
 23,51326      15,891       -25,02468     -70,15546      0,4141622     9,083998 
 21,82203      17,53173     -28,67185     -66,02189      0,6061459     9,094445 
 21,82203      17,53173     -28,67131     -66,02126      7,426879E-05                11,17611 
 21,56334      17,8182      -29,15489     -65,26801      0,1015131     8,817823 
 21,56334      17,8182      -29,11795     -65,30322      4,574307E-03                11,15675 
 20,18124      19,3492      -31,92921     -61,37806      0,5329689     9,058788 
 18,67883      21,20941     -34,59473     -56,45325      0,6269732     8,931623 
 18,67883      21,20941     -34,53099     -56,52534      8,612993E-03                11,17241 
 18,5935       21,31495     -34,72435     -56,24296      3,268817E-02                10,4697 
 18,5935       21,31495     -34,72189     -56,24065      3,01502E-04   11,16178 
 17,05833      23,42897     -37,54943     -50,73508      0,6741366     9,180937 
 16,27326      24,59994     -38,77922     -47,68256      0,3730462     8,821814 
 16,27326      24,59994     -38,71805     -47,75857      8,743932E-03                11,15863 
 15,57408      25,64275     -40,07521     -45,14314      0,323676      9,103499 
 14,16543      27,98198     -42,38835     -39,15481      0,7121158     9,014764 
 12,83356      30,3946      -44,63155     -33,13704      0,7192647     8,928928 
 12,83356      30,3946      -44,63121     -33,1368       3,703303E-05                11,1482 
 12,21661      31,61619     -45,49593     -30,0521       0,3600397     8,897934 
 12,21661      31,61619     -45,45774     -30,11256      6,409139E-03                11,15709 
 11,57676      32,88313     -46,57867     -26,97323      0,3665608     9,093843 
 10,37754      35,52515     -48,26785     -20,34068      0,7553007     9,061647 
 9,365114      37,95994     -49,69249     -14,31492      0,6863654     9,021255 
 8,629814      39,98693     -50,369       -9,212282      0,5625299     9,150258 
 8,434724      40,52465     -50,59403     -7,913967      0,1515929     8,692173 
 7,913684      42,1351      -50,98282     -3,942325      0,4455964     8,955699 
 7,605796      43,08675     -51,36928     -1,704691      0,2659568     8,53808 
 7,605796      43,08675     -51,3689      -1,704531      3,665002E-05                11,19204 
 7,240231      44,34777     -51,68378      1,313609      0,3472759     8,73807 
 7,240231      44,34777     -51,65377      1,231926      7,79852E-03   11,15898 
 6,876411      45,60197     -52,23248      4,230702      0,336582      9,073884 
 6,876411      45,60197     -52,23208      4,230846      3,745754E-05                11,1719 
 6,649382      46,56955     -52,39673      6,537615      0,2603887     8,881483 
 6,296647      48,07218     -52,82937      10,07435      0,4029791     8,841888 
 6,296647      48,07218     -52,82981      10,07435      3,945872E-05                11,1177 
 6,156847      48,86194     -52,81392      11,91459      0,2135476     8,617789 
 5,868281      50,49126     -53,10841      15,67462      0,4355018     8,660233 
 5,565994      52,80891     -53,01233      21,20713      0,6024756     9,184341 
 5,565994      52,80891     -53,01193      21,20724      3,725816E-05                11,16672 
 5,506546      53,52162     -52,78619      22,82215      0,1932924     8,435995 
 5,506546      53,52162     -52,76811      22,7136       9,862822E-03                11,15754 
 5,113112      58,24322     -52,49166      33,64214      1,237369      8,834901 
 5,01481       59,42352     -52,6084       36,30701      0,3129202     8,524302 
 4,817608      63,05474     -52,43832      44,66199      0,9486083     8,809444 
 4,714139      64,96106     -52,59937      49,00798      0,4995562     8,705681 
 4,661798      67,89178     -52,29606      55,73394      0,763999      8,812571 
 4,661798      67,89178     -52,29412      55,68419      4,463296E-03                11,15692 
 4,613915      70,57158     -52,30608      61,85747      0,6952706     8,878981 
 4,613915      70,57158     -52,3065       61,85737      3,828781E-05                11,14189 
 4,613915      72,6434      -52,12292      66,61263      0,5390662     8,827849 
 4,613915      72,6434      -52,12302      66,59245      1,807762E-03                11,15876 
 4,613915      76,96386     -51,95405      78,05665      0,9848776     11,64149 
 4,613915      76,35846     -51,95405      73,83807      0,5888559     7,164018 
 0             76,35846     -6,404067E-05                73,83807      4,69927       11,05576 
