Emplanture
P_Decal(k).x  P_Decal(k).y  P_abs(k).x    P_abs(k).y    Temps         Vitesse
 0             78,50306     -6,404067E-05                79,20258      109,8456      0 
 5,000015      78,50306     -52,59919      79,20258      6,996287      7,518149 
 5,000015      78,45546     -52,59919      78,47592      8,841565E-02                8,218614 
 16,10091      78,45546     -41,44899      78,47592      8,585653      1,298702 
 16,07931      77,35429     -41,71844      77,32262      1,053771      1,123922 
 16,10422      71,38886     -41,82952      62,43598      3,714669      4,007642 
 15,88386      71,39349     -42,38088      62,46878      5,151307E-02                10,72217 
 15,92369      69,54958     -42,2467       57,77752      0,4238948     11,07155 
 15,92009      69,54946     -42,25577      57,77744      8,330797E-04                10,88482 
 16,00501      65,60454     -42,39668      47,85073      0,9083616     10,92924 
 16,03717      65,60606     -42,31586      47,85396      8,188094E-03                9,878054 
 16,05043      65,32814     -42,28555      47,112        6,631371E-02                11,198 
 16,02326      65,32674     -42,354        47,11139      6,381752E-03                10,72586 
 16,22486      61,07382     -42,33981      36,27296      0,9838362     11,01651 
 16,22985      61,07407     -42,32716      36,27243      1,19027E-03   10,63345 
 16,28888      59,82977     -42,4747       33,07574      0,2913403     10,98406 
 16,28529      59,82949     -42,48381      33,0757       8,48311E-04   10,73399 
 16,52052      56,8709      -42,34571      25,50769      0,6884953     10,99393 
 16,52431      56,87121     -42,33628      25,50703      9,26229E-04   10,21383 
 16,76102      53,89309     -42,80983      17,80918      0,7032484     10,96683 
 16,77301      53,89473     -42,77909      17,81078      2,986098E-03                10,30671 
 16,92842      52,76082     -42,60421      14,80641      0,2705634     11,12294 
 17,15352      52,79161     -42,01842      14,77978      0,175296      3,345164 
 17,24148      52,14874     -42,05425      12,98104      0,4628872     3,886671 
 17,21639      52,14417     -42,11909      12,97836      1,588751E-02                4,08481 
 17,5569       50,27144     -41,95592      8,272847      1,21804       3,865509 
 17,35196      50,25236     -42,49678      8,340958      5,047666E-02                10,79974 
 17,65968      48,95687     -41,92212      4,812881      0,3058645     11,68678 
 17,69052      48,9642      -41,84007      4,816191      8,594191E-03                9,554949 
 17,85242      48,28239     -41,69955      2,850002      0,1732441     11,37819 
 17,84896      48,28138     -41,70866      2,848587      9,634402E-04                9,572479 
 18,1771       47,16037     -41,26918     -0,1288658     0,309249      9,732328 
 18,15043      47,15253     -41,29736     -0,2224875     1,114158E-02                8,775189 
 18,41245      46,25715     -41,07511     -2,596773      0,2318426     10,28571 
 18,61637      46,3227      -40,53226     -2,514523      0,1450561     3,785009 
 18,88279      45,49393     -40,14036     -4,836024      0,5571822     4,225456 
 18,88326      45,49408     -40,13897     -4,835871      3,402899E-04                4,116198 
 19,28022      44,25921     -39,80225     -8,310469      0,8596829     4,060654 
 19,04713      44,20003     -40,45761     -8,291841      5,504483E-02                11,91076 
 19,83988      42,09407     -39,43639     -13,95353      0,5196948     11,07007 
 20,0456       42,18295     -38,8889      -13,79765      0,1358287     4,190872 
 20,47204      41,19593     -38,11161     -16,47439      0,6386619     4,36431 
 20,46765      41,19398     -38,1235      -16,4774       2,824782E-03                4,343058 
 21,84629      38,00224     -36,06307     -25,23241      2,027623      4,435833 
 21,84862      38,0034      -36,05696     -25,23025      1,575275E-03                4,114022 
 22,11495      37,47086     -35,5246      -26,69034      0,344896      4,506043 
 22,11014      37,4684      -35,53773     -26,69445      3,123672E-03                4,405397 
 22,84968      35,98931     -34,2723      -30,8538       0,9291012     4,67935 
 22,64979      35,89793     -34,83304     -30,97922      4,990672E-02                11,51324 
 23,63017      34,05101     -32,98903     -36,12886      0,4638249     11,79289 
 23,8437       34,16447     -32,38066     -35,95704      0,1643621     3,84615 
 23,92533      34,01084     -32,22055     -36,43856      0,1039015     4,883934 
 23,88911      33,98919     -32,3212      -36,47788      2,133285E-02                5,065325 
 25,01512      32,10419     -30,34172     -41,62752      1,130358      4,880741 
 24,82873      32,00638     -30,87614     -41,77384      0,0465212     11,91054 
 25,48272      30,99811     -29,45411     -44,64148      0,2529967     12,65182 
 25,50093      31,00991     -29,40168     -44,62102      5,112356E-03                11,00841 
 26,03478      30,1869      -28,40402     -47,0664       0,2220156     11,89586 
 25,99389      30,15727     -28,51843     -47,12561      1,037564E-02                12,41671 
 27,22195      28,46274     -26,13734     -51,80799      0,4370403     12,01954 
 27,23839      28,47564     -26,09252     -51,78042      4,545871E-03                11,57399 
 27,53585      28,09634     -25,39859     -52,87387      9,814797E-02                13,19499 
 27,52971      28,09168     -25,4163      -52,88258      1,651017E-03                11,95445 
 28,48097      26,87946     -23,50295     -56,40433      0,323245      12,39909 
 28,43503      26,83828     -23,62928     -56,49596      1,129717E-02                13,81422 
 29,70072      25,42648     -20,92347     -60,28388      0,3565526     13,0558 
 29,87649      25,60566     -20,46731     -59,85182      0,1037999     6,052966 
 30,0618       25,42387     -19,98786     -60,35349      0,1005648     6,900339 
 30,06306      25,42516     -19,98426     -60,35035      7,511058E-04                6,369655 
 31,16468      24,34423     -17,43607     -63,32652      0,6388995     6,132448 
 30,98465      24,18246     -17,95729     -63,66908      4,557581E-02                13,68517 
 31,9683       23,32175     -15,60162     -65,85088      0,2502183     12,83215 
 31,96202      23,31371     -15,6166      -65,87135      1,888058E-03                13,43302 
 32,94679      22,54522     -13,13505     -67,67352      0,2338452     13,11512 
 32,96435      22,57125     -13,09558     -67,60541      6,221325E-03                12,65345 
 35,07061      21,15044     -7,639061     -70,75772      0,5084883     12,39289 
 35,09259      21,18879     -7,597616     -70,65283      9,784823E-03                11,52602 
 36,90562      20,14989     -2,599023     -72,64213      0,458374      11,7369 
 36,90746      20,15311     -2,595087     -72,6338       8,346877E-04                11,03908 
 37,25895      19,95168     -1,657324     -73,08135      8,884946E-02                11,69493 
 37,26524      19,96563     -1,647584     -73,04301      3,568218E-03                11,08763 
 38,78855      19,27763      2,550923     -74,11295      0,3876835     11,17586 
 38,78793      19,27637      2,549637     -74,1162       3,268462E-04                10,69485 
 39,5272       18,94257      4,552217     -74,77791      0,1834032     11,49964 
 39,60754      19,1568       4,65867      -74,19785      0,149629      3,941416 
 40,81956      18,70226      8,057444     -74,86834      0,8137147     4,257362 
 40,81926      18,70152      8,056755     -74,87028      5,198982E-04                3,955693 
 41,94482      18,27947      11,06746     -75,72775      0,7552714     4,14478 
 41,94629      18,28445      11,06924     -75,71436      3,522501E-03                3,836767 
 42,82196      18,02531      13,4457      -76,03801      0,6033393     3,975208 
 42,82074      18,0213       13,44345     -76,04832      2,750881E-03                3,835124 
 44,32009      17,57768      17,3576      -76,84563      1,009392      3,957362 
 44,23676      17,38183      17,12891     -77,33769      5,238159E-02                10,35888 
 44,87228      17,24335      18,90301     -77,46278      0,1496362     11,88557 
 44,86908      17,2288       18,89894     -77,50011      3,519933E-03                10,67068 
 46,74163      16,82085      23,78131     -78,03339      0,4456935     11,0197 
 46,78563      17,0703       23,79709     -77,38673      0,2161893     2,992065 
 47,08125      17,01816      24,71127     -77,45385      0,2070225     4,427722 
 47,07794      16,99915      24,70607     -77,50203      1,372494E-02                3,530768 
 49,27792      16,61097      30,37335     -78,15128      1,562381      3,65106 
 49,23771      16,59269      30,17924     -78,18726      2,631982E-02                7,500782 
 49,32393      16,58359      30,48066     -78,19982      3,327701E-02                9,065951 
 49,3267       16,60984      30,4811      -78,13336      1,947607E-02                3,41245 
 51,69389      16,35943      36,72658     -78,22336      1,686021      3,704654 
 51,69771      16,39543      36,73369     -78,13323      3,943485E-02                2,292551 
 51,82845      16,38157      37,17702     -78,17429      9,604768E-02                4,635472 
 51,80917      16,34434      37,09029     -78,26457      0,0302277     4,141647 
 54,04771      16,1721       42,86221     -78,39104      1,580114      3,653727 
 54,0486       16,18377      42,86469     -78,36139      9,393566E-03                3,168013 
 54,38326      16,15812      43,77329     -78,43661      0,2477325     3,680241 
 54,38281      16,14232      43,77441     -78,47643      1,099696E-02                3,622923 
 56,9605       16,06858      50,10415     -78,36664      1,827916      3,463336 
 56,94184      15,83849      50,05034     -78,94402      5,464436E-02                10,61187 
 58,98314      15,85792      55,30944     -78,46986      0,470565      11,22147 
 58,98079      16,10091      55,29721     -77,86263      0,1902671     3,192115 
 59,54042      16,10633      56,77604     -77,83447      0,4149101     3,564851 
 59,54097      16,09594      56,77888     -77,86033      7,422449E-03                3,504468 
 64,1007       16,33707      68,253       -76,60717      3,226951      3,576858 
 64,11202      16,12387      68,43155     -77,13013      5,545364E-02                9,96517 
 64,70848      16,15534      69,86939     -77,07684      0,1546729     9,30241 
 64,71144      16,12528      69,87909     -77,15181      6,92981E-03   10,90918 
 69,35316      16,58259      81,5076      -75,60197      1,065136      11,01393 
 69,32802      16,83725      81,46056     -74,9634       0,203743      3,1427 
 69,73006      16,87694      82,55225     -74,87897      0,2967885     3,689355 
 69,73177      16,86264      82,55694     -74,91489      1,006936E-02                3,597384 
 74,7171       17,45661      95,09299     -73,46347      3,492302      3,613602 
 74,74394      17,2311       95,23206     -74,0144       5,501546E-02                10,32828 
 75,61269      17,33466      97,39218     -73,866        0,2114356     10,24055 
 75,61474      17,32021      97,39622     -73,90224      3,353613E-03                10,87295 
 80,15487      17,96593      108,8378     -72,55731      1,047206      11,00103 
 80,15367      17,97435      108,8362     -72,53618      2,008845E-03                10,55095 
 81,39181      18,15054      112,0093     -72,28716      0,2898393     10,98165 
 81,39333      18,14167      112,0123     -72,30943      2,065238E-03                10,87821 
 85,49808      18,84379      122,3841     -70,90062      0,9496812     11,02161 
 85,49696      18,8503       122,3826     -70,88435      1,56085E-03   10,46997 
 87,06483      19,11843      126,398      -70,50105      0,3679236     10,9634 
 87,06684      19,10884      126,4022     -70,52518      2,225862E-03                11,00878 
 90,7707       19,88255      135,7479     -68,92523      0,8578599     11,05268 
 90,76997      19,88607      135,7466     -68,91623      8,253327E-04                11,01795 
 92,65856      20,28059      140,5478     -68,23323      0,4417104     10,97884 
 92,66174      20,26799      140,5551     -68,26469      2,891652E-03                11,17296 
 95,40856      20,96089      147,3826     -66,69503      0,6331556     11,06455 
 95,34169      21,19825      147,2101     -66,10324      0,1611533     3,825067 
 95,82454      21,33429      148,465      -65,73838      0,3149141     4,150184 
 95,82486      21,33292      148,4656     -65,74184      9,073402E-04                3,86518 
 98,06338      21,96383      154,1437     -64,3178       1,494124      3,91799 
 98,12322      21,71611      154,251      -64,9508       5,505829E-02                11,66083 
 100,8625      22,5877       161,0546     -62,73626      0,6235068     11,47537 
 100,865       22,58033      161,0615     -62,75415      1,679561E-03                11,41202 
 103,5636      23,52112      167,6541     -60,1795       0,610983      11,58375 
 103,5644      23,51908      167,6566     -60,18452      4,632367E-04                12,10889 
 105,247       24,18284      171,7787     -58,17456      0,3777768     12,13959 
 105,243       24,19289      171,7681     -58,15002      2,358182E-03                11,35078 
 106,2566      24,59273      174,3093     -57,0459       0,2323599     11,92453 
 106,2676      24,5676       174,3412     -57,10695      5,534391E-03                12,44612 
 108,9418      25,73137      180,7587     -53,73047      0,5947574     12,19243 
 108,9483      25,71764      180,7787     -53,76266      2,999486E-03                12,63218 
 111,5918      26,97756      186,989      -49,9033       0,5769648     12,6729 
 111,5979      26,96623      187,0094     -49,92938      2,439663E-03                13,5674 
 113,0393      27,75043      190,3595     -47,33276      0,3079722     13,76279 
 113,0368      27,75499      190,3519     -47,32223      1,011172E-03                12,81752 
 116,3886      29,57858      198,2823     -41,71447      0,7265452     13,36843 
 116,3735      29,60384      198,2341     -41,65664      6,035424E-03                12,47828 
 116,7866      29,84977      199,2661     -40,83293      9,158694E-02                14,4173 
 116,7999      29,82734      199,3045     -40,88618      5,036939E-03                13,03111 
 118,5861      30,89095      203,6322     -37,7768       0,3939091     13,52831 
 118,5944      30,87803      203,6577     -37,80653      2,865624E-03                13,65912 
 119,8758      31,70881      206,708      -35,2508       0,2769101     14,37096 
 119,8632      31,72836      206,6738     -35,20357      4,582342E-03                12,7182 
 120,8264      32,35292      209,0798     -33,47412      0,2190899     13,52435 
 120,8009      32,38803      209,0062     -33,39284      9,50746E-03   11,53346 
 121,1493      32,64137      209,958      -32,57729      8,072808E-02                15,52649 
 121,1555      32,63276      209,9732     -32,59909      2,257732E-03                11,76561 
 122,3698      33,51595      213,3261     -30,20392      0,290817      14,16882 
 122,2389      33,6959       213,0366     -29,72437      0,1113857     5,028812 
 122,8261      34,12289      214,6255     -28,75932      0,3575875     5,198643 
 122,8241      34,12532      214,6201     -28,75303      1,632849E-03                5,042405 
 123,3007      34,53237      215,8652     -27,69344      0,3070511     5,324556 
 123,3076      34,52447      215,8813     -27,71461      5,030903E-03                5,279321 
 124,3536      35,4172       219,0161     -25,37602      0,5781474     6,764843 
 124,4613      35,29081      219,3949     -25,53871      4,759291E-02                8,661866 
 124,9447      35,70359      220,8196     -24,77796      0,1591859     10,14576 
 124,8811      35,77252      220,6876     -24,57584      3,165882E-02                7,624908 
 125,4071      36,25799      222,3587     -23,4048       0,2151321     9,485102 
 125,3301      36,34146      222,2195     -23,13112      7,163369E-02                4,286542 
 125,7293      36,70998      223,5915     -22,36254      0,3144454     5,001412 
 125,7346      36,63682      223,4979     -22,66815      3,296153E-02                9,69674 
 126,2823      37,24718      225,3194     -21,16821      0,3266146     7,224355 
 126,2431      37,28238      225,2442     -21,04591      3,324527E-02                4,31774 
 127,4094      38,58197      229,3423     -18,4568       1,075932      4,505318 
 127,5227      38,43221      229,492      -19,02799      4,984037E-02                11,84773 
 128,2374      39,40891      231,9492     -16,619        0,2900452     11,864 
 128,0058      39,57845      231,4874     -15,96074      0,9956911     0,8076196 
 128,0221      39,60066      231,6175     -15,69333      0,2041022     1,457232 
 128,1518      39,47734      231,838      -16,19445      7,389264E-02                7,409225 
 128,8254      40,51172      234,348      -14,13467      0,5296804     6,130002 
 128,8568      40,49533      234,4197     -14,19284      1,241396E-02                7,436831 
 129,3905      41,51648      236,2342     -12,09363      0,4353231     6,374001 
 129,4159      41,50576      236,2949     -12,12781      8,692265E-03                8,009511 
 129,7681      42,34222      237,4399     -10,07382      0,2784597     8,445059 
 129,8775      42,29621      237,7309     -10,08413      2,884067E-02                10,09309 
 130,0965      42,81605      238,5238     -8,959105      0,1293441     10,64126 
 130,1214      42,8079       238,5843     -8,986713      5,301629E-03                12,54117 
 130,6008      44,27022      240,1492     -5,615707      0,3246973     11,44619 
 130,5789      44,27548      240,0945     -5,601333      4,818738E-03                11,73745 
 130,9413      45,77355      241,0576     -2,017718      0,3414234     10,86856 
 130,6665      45,82507      240,3662     -1,911314      0,2184134     3,202921 
 130,7332      46,18082      240,5232     -0,9291211     0,2569081     3,871682 
 130,7514      46,17734      240,5683     -0,9394166     1,230541E-02                3,759735 
 130,9744      47,36687      241,2337      2,071009      0,7907059     3,899159 
 131,2001      47,30464      241,7896      1,843635      5,428946E-02                11,06233 
 131,4809      49,58589      242,3129      7,682361      0,5234719     11,19856 
 131,4758      49,58658      242,3004      7,684592      1,246187E-03                10,19876 
 131,5918      50,52999      242,6505      10,07833      0,2200263     10,99504 
 131,5978      50,52956      242,6652      10,07773      1,405476E-03                10,52874 
 131,7796      53,39308      242,8345      17,28081      0,6620111     10,88361 
 131,5329      53,40892      242,2179      17,32501      0,1865329     3,314349 
 131,5484      53,65147      242,2633      17,97016      0,1723828     3,751823 
 131,5895      53,65022      242,3661      17,97023      2,252956E-02                4,564859 
 131,7634      59,51577      242,3612      32,55695      3,236019      4,507612 
 131,9669      59,50004      242,8712      32,50635      4,757867E-02                10,77193 
 131,9669      61,51743      242,5653      37,63665      0,4631964     11,09553 
 131,9693      61,51743      242,5715      37,63748      5,544436E-04                11,24643 
 131,9693      65,47145      242,3723      47,59177      0,9092207     10,95035 
 131,9715      65,4715       242,3773      47,59288      5,048033E-04                10,30307 
 131,9351      69,79685      241,97        58,43399      0,9927629     10,92784 
 131,8839      69,79584      241,842       58,4674       1,427104E-02                9,265964 
 131,8127      78,25465      241,472       77,81428      2,449183      7,900766 
 132,7251      78,37336      241,9556      78,39382      0,4436572     1,701379 
 143,7439      78,37336      252,9338      78,39382      4,822737      2,276354 
 143,8098      77,35393      252,875       77,41659      0,9707452     1,008508 
 143,8427      70,04136      253,1506      60,66276      4,753693      3,524858 
 143,5762      70,0387       252,5396      60,68319      5,600307E-02                10,91553 
 143,6153      61,31108      253,479       40,67123      1,832857      10,93047 
 143,8911      61,31306      254,1142      40,7285       0,1930076     3,30414 
 143,8941      60,62159      254,2496      39,16737      0,4915107     3,188126 
 143,8818      60,61377      254,2208      39,12444      9,279518E-03                5,570238 
 143,8316      55,94702      254,7477      28,32495      2,945646      3,670617 
 143,5661      55,94156      254,135       28,25172      0,0554131     11,13622 
 143,4297      52,60929      253,9964      20,66922      0,7023112     10,7983 
 143,7082      52,59803      254,6404      20,69323      0,1972841     3,266195 
 143,6685      51,62861      254,7226      18,4614       0,689015      3,241357 
 143,6579      51,60291      254,6908      18,32548      1,839062E-02                7,590929 
 143,3941      48,66368      254,2064      11,67105      1,977063      3,374723 
 143,1211      48,68819      253,5902      11,79224      5,726658E-02                10,96576 
 143,0326      47,70215      253,5504      9,432161      0,1994874     11,83242 
 143,2487      47,66909      254,0474      9,35578       0,1001125     5,022491 
 142,8818      45,26726      253,2124      3,915713      1,125126      4,8917 
 142,8064      45,27873      253,0699      4,07818       2,993946E-02                7,218127 
 142,6148      44,02473      252,8522      1,061122      0,397815      7,603784 
 142,6797      44,01042      253,0011      1,028558      2,884718E-02                5,283004 
 142,2926      42,25526      252,0835     -3,168114      0,755421      5,686659 
 142,3581      42,23737      252,2321     -3,218522      4,581597E-02                3,425994 
 141,8934      40,53411      250,8928     -7,231511      1,153916      3,66628 
 141,866       40,51145      250,8034     -7,36099       2,080675E-02                7,563864 
 141,7652      40,20922      250,5028     -7,928525      0,2072568     3,098634 
 141,775       40,20597      250,5522     -7,836475      2,369585E-02                4,407953 
 141,3416      38,90588      249,3129     -10,83847      0,8460894     3,83853 
 141,0721      38,9811       248,6907     -10,65747      5,641446E-02                11,48563 
 140,6983      38,03108      247,5414     -12,65734      0,2116224     10,89959 
 140,8567      37,96877      247,8948     -12,83237      5,872041E-02                6,715215 
 140,6205      37,36833      247,2329     -14,1656       0,2231904     6,669087 
 140,6851      37,33864      247,3718     -14,25762      3,500636E-02                4,759263 
 139,9641      35,77029      245,1357     -17,63796      0,8483125     4,777758 
 139,9593      35,7292       245,1414     -17,65765      3,669708E-02                0,5592074 
 139,1639      34,28785      242,7889     -20,81206      0,876074      4,49168 
 139,1187      34,28215      242,6485     -20,88028      2,001614E-02                7,799006 
 138,8143      33,79498      241,7497     -21,74889      0,2727539     4,582761 
 138,8332      33,78315      241,8477     -21,66185      2,557576E-02                5,124481 
 138,2464      32,84438      240,1515     -23,72898      0,5373863     4,97584 
 137,9709      33,00238      239,5456     -23,30499      5,440323E-02                13,59343 
 137,3386      32,11055      237,6935     -24,96138      0,1954235     12,71474 
 137,5895      31,93263      238,2254     -25,44059      0,1459956     4,903811 
 137,2269      31,42117      237,2672     -26,49256      0,3036227     4,686393 
 137,203       31,39574      237,1493     -26,62797      1,631096E-02                11,00877 
 136,2041      30,16962      234,3582     -28,83908      0,7760895     4,588085 
 136,2086      30,16595      234,4965     -28,66828      3,707771E-02                5,925849 
 136,0867      30,01657      234,1333     -29,06602      7,771423E-02                6,930054 
 136,083       29,97605      234,0562     -29,23508      2,303546E-02                8,067361 
 134,8405      28,63205      230,6392     -31,96381      1,021913      4,279045 
 134,7808      28,65584      230,4667     -31,9389       0,0259441     6,717912 
 134,627       28,50491      230,1248     -32,08286      0,1096555     3,383371 
 134,6365      28,4952       230,2486     -31,98328      2,497082E-02                6,363066 
 133,4457      27,32697      227,0963     -34,39578      0,709096      5,597981 
 133,2224      27,53903      226,6196     -33,86147      5,104971E-02                14,02774 
 132,7946      27,16185      225,5725     -34,40294      0,1054511     11,17868 
 132,8898      27,05383      225,7757     -34,66602      3,359376E-02                9,895063 
 131,8267      26,1169       223,2791     -36,57442      0,340933      9,217202 
 131,7295      26,20477      223,0359     -36,38579      2,238227E-02                13,75034 
 131,039       25,65452      221,387      -37,34947      0,1598437     11,94834 
 131,1226      25,54964      221,5736     -37,59502      3,172102E-02                9,723374 
 130,2039      24,81752      219,5147     -39,15382      0,2876505     8,977601 
 130,1118      24,92023      219,2903     -38,92659      2,339601E-02                13,65222 
 129,0897      24,14995      216,9157     -40,50079      0,2231725     12,76565 
 129,1655      24,04941      217,0934     -40,73005      2,882474E-02                10,06257 
 128,4492      23,50955      215,5069     -41,96143      0,2096111     9,581155 
 128,4805      23,46435      215,5749     -42,06762      1,491122E-02                8,457662 
 127,0833      22,49566      212,401      -44,09035      0,4734405     7,949646 
 127,0742      22,50883      212,5478     -43,95973      1,806191E-02                10,88062 
 126,5675      22,15747      211,4012     -44,89321      0,1536745     9,621176 
 126,4668      22,2821       211,1157     -44,64111      2,751012E-02                13,84509 
 124,6543      21,13274      207,1088     -47,36718      0,3738776     12,96225 
 124,8266      20,86118      207,5648     -47,95638      0,16702       4,460676 
 124,5723      20,6999       207,0433     -48,36717      0,1624844     4,085609 
 124,5535      20,69261      206,9496     -48,41274      1,029586E-02                10,1245 
 122,2072      19,32604      201,8231     -51,7389       1,408009      4,34016 
 122,0635      19,57265      201,5509     -51,15         5,341556E-02                12,14511 
 119,8486      18,28282      196,7625     -54,78286      0,4701579     12,78418 
 119,9896      18,02082      197,1367     -55,36034      0,1636635     4,204666 
 119,3846      17,69539      195,863      -56,19725      0,3902311     3,905539 
 119,3821      17,70002      195,9506     -56,14866      1,904453E-02                5,256441 
 116,9774      16,40681      190,7181     -59,93102      1,437333      4,491927 
 116,824       16,66819      190,2491     -59,38389      5,467805E-02                13,17904 
 116,1267      16,33691      188,7602     -60,24194      0,1433936     11,98408 
 116,204       16,17423      188,9832     -60,59678      5,365229E-02                7,810616 
 113,8866      15,07343      183,9435     -63,76658      0,7659798     7,772527 
 113,9398      14,95066      184,0874     -64,04062      7,707081E-02                4,016136 
 110,9089      13,63727      177,2893     -67,60508      1,894304      4,052126 
 110,8951      13,62451      177,2636     -67,63501      1,224617E-02                3,218758 
 107,9041      12,44329      170,5023     -70,80819      1,933744      3,862434 
 107,7919      12,70521      170,183      -70,22758      0,0558488     11,8643 
 105,2632      11,79906      164,4592     -72,43195      0,5295622     11,5823 
 105,3608      11,52682      164,7168     -73,04708      0,1812242     3,679844 
 104,8705      11,35105      163,5959     -73,51503      0,3234175     3,755551 
 104,8504      11,34731      163,4938     -73,54123      1,256774E-02                8,391617 
 101,8347      10,39234      156,527      -75,78743      1,935458      3,782011 
 101,7446      10,64983      156,2938     -75,20248      5,536266E-02                11,3745 
 99,5247       10,02092      151,2007     -76,45969      0,4727181     11,09745 
 99,60101      9,751616      151,381      -77,07773      0,182468      3,528311 
 98,80772      9,526844      149,5844     -77,60226      0,5428623     3,447579 
 98,79486      9,521691      149,5162     -77,62377      9,157152E-03                7,818193 
 95,74924      8,741421      142,4097     -79,26508      2,064653      3,532573 
 95,6711       9,003758      142,2147     -78,66417      5,677626E-02                11,12709 
 93,67715      8,57534       137,6208     -79,29451      0,4283953     10,82395 
 93,70618      8,440226      137,6797     -79,60661      4,397615E-02                7,221883 
 89,631        7,56452       128,2756     -81,37836      1,327378      7,20935 
 89,64236      7,49859       128,29       -81,53228      2,866237E-02                5,393611 
 87,80914      7,183004      124,0169     -81,93222      0,7979699     5,378446 
 87,79819      7,246568      124,0608     -81,77221      2,191613E-02                7,571693 
 83,49646      6,506101      114,0493     -83,07469      1,395486      7,234685 
 83,50737      6,427151      114,0593     -83,2585       3,712153E-02                4,958795 
 81,94077      6,210707      110,4673     -83,44489      0,745685      4,823512 
 81,93032      6,286491      110,5547     -83,25352      2,770552E-02                7,593897 
 77,32507      5,649965      99,91353     -84,47137      1,508511      7,100142 
 77,30701      5,744153      99,86293     -84,25591      2,262918E-02                9,780433 
 76,13159      5,59726       97,24346     -84,47099      0,2875859     9,139126 
 76,14288      5,506963      97,37249     -84,66717      3,104366E-02                7,563866 
 71,10775      4,877554      85,79564     -86,36823      1,615404      7,243486 
 71,08552      4,990276      85,71558     -86,11208      2,541478E-02                10,55989 
 70,39939      4,919996      84,23512     -86,25295      0,1600849     9,289703 
 70,40981      4,818227      84,27208     -86,48603      3,117904E-02                7,568858 
 67,90986      4,562309      78,61909     -87,38994      0,7731726     7,404292 
 67,9162       4,481758      78,63876     -87,57475      3,510744E-02                5,293741 
 64,71832      4,22998       71,36523     -88,35148      1,403293      5,212656 
 64,69737      4,391472      71,38535     -87,9827       3,941538E-02                9,370211 
 61,50882      4,215722      64,02991     -88,89606      0,7445654     9,954697 
 61,5127       4,051668      64,05006     -89,27313      7,195672E-02                5,24767 
 59,24185      3,998019      58,96164     -89,55194      1,015773      5,016918 
 59,24046      4,055903      59,11121     -89,43079      2,759204E-02                6,976043 
 58,30751      4,03391       56,91573     -89,74368      0,3078397     7,203949 
 58,29341      4,173826      56,81215     -89,42084      3,006356E-02                11,27797 
 55,1236       4,198925      49,44252     -89,97175      0,6734301     10,97396 
 55,11702      4,081609      49,43375     -90,24202      3,612155E-02                7,486207 
 53,83028      4,153685      46,56874     -90,15329      0,4065846     7,049896 
 53,82948      4,139307      46,72463     -90,20927      1,806382E-02                9,169334 
 51,952        4,244432      42,30229     -90,45203      0,6044541     7,32727 
 51,9298       4,216641      42,19954     -90,51092      0,0130928     9,045634 
 48,80951      4,518601      34,91266     -90,26208      1,146357      6,360255 
 48,80137      4,459963      34,89548     -90,39742      2,961037E-02                4,607546 
 48,56189      4,493186      34,47874     -90,3474       0,144356      2,907672 
 48,55599      4,450491      34,66526     -90,49188      5,385902E-02                4,380727 
 46,05096      4,796603      28,84577     -90,38681      1,727661      3,368971 
 46,07971      5,004625      28,90328     -89,91093      5,250375E-02                9,129733 
 45,70332      5,056616      27,93686     -89,90294      8,781072E-02                11,00613 
 45,67704      4,925219      27,89959     -90,21051      5,587998E-02                5,544396 
 43,50027      5,360629      22,84839     -89,60492      0,932066      5,458167 
 43,48495      5,284046      22,83834     -89,78765      5,381911E-02                3,400428 
 42,60383      5,460328      20,7633      -89,68065      0,6256869     3,320821 
 42,57491      5,478057      20,60431     -89,61526      2,161234E-02                7,954021 
 41,02065      5,886363      17,10453     -88,97234      1,057633      3,364445 
 41,01933      5,881333      17,24607     -89,0411       3,535844E-02                4,450375 
 39,59235      6,256252      13,71776     -88,63514      0,9578249     3,70797 
 39,56454      6,275356      13,56318     -88,56166      2,080616E-02                8,226265 
 38,60371      6,589983      11,39412     -88,04742      0,6465716     3,447689 
 38,68495      6,838229      11,60426     -87,49183      5,508745E-02                10,78296 
 36,7186       7,482502      6,775275     -86,5779       0,4261505     11,5328 
 36,62797      7,25973       6,591066     -87,1007       0,1283706     4,317973 
 36,21024      7,429677      5,689126     -86,7907       0,256528      3,717835 
 36,20504      7,416895      5,829359     -86,90248      3,505818E-02                5,115381 
 33,95425      8,333169      0,4338559    -85,55836      1,450129      3,834422 
 33,9469       8,315107      0,4253202    -85,60395      1,329502E-02                3,488928 
 33,72851      8,404006     -0,1140872    -85,5079       0,1640201     3,340401 
 33,70601      8,444572     -0,2719363    -85,36208      2,589523E-02                8,298443 
 31,70973      9,424593     -5,046878     -83,70707      1,265705      3,992736 
 31,80573      9,620097     -4,803261     -83,28192      5,012102E-02                9,776335 
 31,02157      10,00501     -6,877057     -82,66463      0,1894432     11,42147 
 30,97333      9,923861     -6,972184     -82,86122      2,872426E-02                7,603315 
 29,58536      10,74881     -10,30661     -81,25349      0,4948721     7,480278 
 29,62418      10,81415     -10,13606     -81,16977      2,113413E-02                8,989702 
 28,30399      11,59888     -13,57622     -79,78329      0,3569305     10,39153 
 28,22371      11,54393     -13,82996     -79,86115      3,136362E-02                8,462595 
 25,65027      13,36042     -20,0958      -76,01469      1,006121      7,307541 
 25,6712       13,43255     -20,11151     -75,79769      1,904192E-02                11,42586 
 24,89233      14,05556     -21,82201     -74,39877      0,2602038     8,492216 
 24,91998      14,09017     -21,69806     -74,37093      1,180563E-02                10,76025 
 24,4342       14,4788      -22,89281     -73,48741      0,1346925     11,03206 
 24,34661      14,37871     -23,0977      -73,71465      4,636144E-02                6,599718 
 23,1138       15,45749     -25,99136     -71,11003      0,5558193     7,004512 
 23,08474      15,46353     -26,11238     -71,04353      1,109059E-02                12,45118 
 21,38626      17,11128     -29,79717     -66,87348      0,8719811     6,38178 
 21,36066      17,08816     -29,86508     -66,9174       1,533457E-02                5,274271 
 21,08853      17,38951     -30,39177     -66,10963      0,1784903     5,402596 
 21,09687      17,39714     -30,30762     -66,15277      1,329789E-02                7,111206 
 19,70322      18,94093     -33,17887     -62,16112      0,8568043     5,738824 
 19,87514      19,11561     -32,76368     -61,77198      4,583662E-02                12,41475 
 18,37946      20,96749     -35,36499     -56,91743      0,4540059     12,13106 
 18,16235      20,79195     -35,90432     -57,2761       0,142333      4,550591 
 18,06626      20,9108      -36,06035     -57,02373      8,806624E-02                3,36918 
 18,062        20,94134     -36,11235     -56,8933       1,442552E-02                9,733391 
 16,52556      23,05712     -38,94656     -51,37854      1,214161      5,106757 
 16,71991      23,21078     -38,45827     -51,07029      4,826943E-02                11,963 
 15,93886      24,37574     -39,63821     -48,07979      0,2826499     11,37399 
 15,72615      24,23312     -40,1676      -48,3533       0,1262962     4,718013 
 15,01805      25,28923     -41,48293     -45,77731      0,6383365     4,531107 
 15,00178      25,30908     -41,55903     -45,66727      1,294609E-02                10,33412 
 13,59155      27,65094     -43,84436     -39,70967      1,392869      4,581114 
 13,80132      27,78926     -43,26408     -39,52562      5,079199E-02                11,98554 
 12,4693       30,20216     -45,55476     -33,44137      0,5461233     11,90423 
 12,32863      30,13111     -45,91448     -33,54417      5,073122E-02                7,374619 
 11,70826      31,35946     -46,77139     -30,45999      0,4507347     7,101753 
 11,76673      31,38899     -46,56553     -30,50613      1,965755E-02                10,73189 
 11,12215      32,66527     -47,71104     -27,31812      0,3615554     9,369411 
 11,08582      32,66911     -47,82315     -27,2491       1,037461E-02                12,68993 
 9,886378      35,31163     -49,4949      -20,64303      0,8291472     8,218459 
 9,976925      35,36526     -49,23808     -20,59738      2,281071E-02                11,43523 
 8,963056      37,80352     -50,70031     -14,5016       0,548037      11,43847 
 8,81039       37,74814     -51,08619     -14,55348      5,771171E-02                6,746415 
 8,071706      39,78446     -51,76323     -9,431822      0,7733772     6,680066 
 8,178879      39,82332     -51,45802     -9,461485      0,028122      10,90434 
 7,980911      40,36897     -51,7229      -8,074708      0,1346523     10,48514 
 7,926013      40,35121     -51,86007     -8,088899      1,651967E-02                8,347914 
 7,402379      41,96968     -52,23914     -4,119613      0,4953662     8,049289 
 7,415223      41,97383     -52,15242     -4,238044      1,333127E-02                11,01087 
 7,104856      42,93314     -52,58702     -1,881897      0,2715413     8,823318 
 7,082285      42,9266      -52,64228     -1,888087      6,959071E-03                7,98979 
 6,71449       44,19532     -52,94782      1,123367      0,4011692     7,545231 
 6,567932      44,1528      -53,29499      1,056965      9,998528E-02                3,53517 
 6,199068      45,42439     -53,85167      4,016716      0,8801442     3,421765 
 6,194482      45,45226     -53,88113      4,159804      1,821809E-02                8,018958 
 5,969748      46,41005     -54,01955      6,377375      0,6558948     3,387564 
 5,964685      46,40886     -54,00194      6,285695      2,230742E-02                4,184944 
 5,607508      47,93041     -54,47458      9,972415      1,030859      3,605625 
 5,877274      48,0088      -53,84198      10,12773      5,764443E-02                11,30021 
 5,73934       48,78802     -53,8037       11,87449      0,1715844     10,18262 
 5,59873       48,76311     -54,13316      11,84781      4,550465E-02                7,263765 
 5,307913      50,40514     -54,42926      15,63445      0,5382707     7,056297 
 5,328505      50,42974     -54,38851      15,74526      9,358474E-03                12,61604 
 5,025723      52,75118     -54,29499      21,29749      0,6766875     8,206178 
 4,871659      52,73833     -54,66142      21,34183      9,960831E-02                3,705561 
 4,811159      53,46364     -54,42067      22,94222      0,4975563     3,252711 
 4,803984      53,46304     -54,4053       22,75271      4,560547E-02                4,169233 
 4,410546      58,18469     -54,11929      33,62525      3,263985      3,332217 
 4,695457      58,20845     -53,44688      33,52386      5,869824E-02                11,58486 
 4,596654      59,39476     -53,57471      36,29469      0,2390182     11,6049 
 4,453266      59,38697     -53,90622      36,30125      4,502037E-02                7,365049 
 4,255735      63,02424     -53,73365      44,65071      1,148523      7,271295 
 4,246849      63,02376     -53,74763      44,55174      1,138282E-02                8,781252 
 4,142816      64,94046     -53,91576      49,01281      0,6169505     7,235969 
 4,069027      64,93914     -54,08567      49,02042      0,0337566     5,038563 
 4,016501      67,88025     -53,78099      55,76577      1,349797      5,002401 
 4,08759       67,88151     -53,61494      55,68169      0,0251923     7,38791 
 4,039615      70,56645     -53,62737      61,88161      0,8776236     7,064447 
 3,974715      70,57503     -53,77672      61,93181      2,891544E-02                5,449017 
 3,974715      72,6434      -53,59271      66,65515      0,9188393     5,144454 
 3,878415      72,6434      -53,81411      66,65951      8,784005E-02                2,521035 
 3,878415      76,22836     -53,6769       76,36634      2,808739      3,456285 
 3,878415      76,17206     -53,6769       75,79925      0,1360598     4,167969 
 0             76,17206     -6,404067E-05                75,79925      11,35193      4,728432 
